<svg width="100" height="100" viewBox="0 0 100 100" fill="none" xmlns="http://www.w3.org/2000/svg">
<g clip-path="url(#clip0_1143_42783)">
<path d="M11.548 85.8318C7.0136 85.8318 3.3246 82.1428 3.3246 77.6082C3.3246 73.0738 7.0136 69.3847 11.548 69.3847C16.0828 69.3847 19.7718 73.0738 19.7718 77.6082C19.7718 82.1428 16.0828 85.8318 11.548 85.8318ZM11.548 66.0601C5.18037 66.0601 0 71.2406 0 77.6082C0 81.4628 1.61983 84.8973 4.68418 87.5406C7.55419 90.016 11.6698 91.7225 16.4215 92.5132C17.101 92.1398 18.3861 90.8804 18.7953 90.0177C15.2942 89.4137 13.6885 88.8144 13.6885 88.8144C13.6885 88.8144 14.1366 88.7962 15.0365 88.5438C19.7137 87.232 23.1425 82.6123 23.0964 77.6082C23.0378 71.241 17.916 66.0601 11.548 66.0601Z" fill="#252525"/>
<path d="M97.9308 85.2795V85.8492H98.2758C98.3755 85.8492 98.4543 85.8228 98.5118 85.7704C98.5691 85.7182 98.5978 85.6495 98.5978 85.5643C98.5978 85.3745 98.4906 85.2795 98.2758 85.2795H97.9308ZM98.9426 85.5497C98.9426 85.6944 98.9038 85.8183 98.8264 85.9202C98.7491 86.0226 98.6429 86.0941 98.5081 86.1341L99.0102 86.9213H98.6203L98.1631 86.1567H97.9308V86.9213H97.601V84.972H98.3206C98.5055 84.972 98.6553 85.025 98.7704 85.1297C98.8853 85.2344 98.9426 85.3745 98.9426 85.5497ZM97.1887 87.0412C97.4486 87.3058 97.7835 87.4381 98.1933 87.4381C98.603 87.4381 98.9377 87.3058 99.1974 87.0412C99.4573 86.7761 99.5873 86.4314 99.5873 86.0069C99.5873 85.5818 99.4573 85.2382 99.1974 84.9759C98.9377 84.7135 98.603 84.5825 98.1933 84.5825C97.7835 84.5825 97.4486 84.7135 97.1887 84.9759C96.9288 85.2382 96.7991 85.5818 96.7991 86.0069C96.7991 86.4314 96.9288 86.7761 97.1887 87.0412ZM96.9341 84.7326C97.2637 84.4028 97.6833 84.2378 98.1933 84.2378C98.7028 84.2378 99.1226 84.4028 99.4526 84.7326C99.7822 85.062 99.9472 85.4873 99.9472 86.0069C99.9472 86.531 99.7822 86.9585 99.4526 87.2883C99.1226 87.6183 98.7028 87.7828 98.1933 87.7828C97.6833 87.7828 97.2637 87.6183 96.9341 87.2883C96.6041 86.9585 96.4395 86.531 96.4395 86.0069C96.4395 85.4873 96.6041 85.062 96.9341 84.7326Z" fill="#252525"/>
<path d="M75.4111 82.9141L71.5104 72.5647H68.0352L73.7262 87.0108C73.7262 87.0108 71.2086 92.9954 71.2094 92.995C72.866 92.995 74.6777 92.8781 75.3868 91.1328C77.0494 87.039 82.8401 72.5647 82.8401 72.5647H79.3636L75.4111 82.9141Z" fill="#252525"/>
<path d="M62.375 88.077C62.375 88.077 65.601 88.0172 65.601 85.8282V66.1681H62.375V88.077Z" fill="#252525"/>
<path d="M50.8517 85.05C48.9014 85.05 45.9838 83.7484 45.9387 80.1627V80.137C45.9387 77.3055 48.0277 75.1702 50.7979 75.1702C52.8671 75.1702 54.5482 76.2505 55.2999 78.071C55.5955 78.6865 55.7376 79.4077 55.7108 80.1564C55.6837 80.917 55.5135 81.6434 55.2159 82.2642C54.4563 84.0085 52.8248 85.05 50.8517 85.05ZM55.6837 74.602C54.7854 73.3492 53.0308 72.1333 50.4473 72.1333C46.038 72.1333 42.7129 75.5626 42.7129 80.1101C42.7129 82.2354 43.4398 84.2107 44.7592 85.6715C46.1869 87.2518 48.1539 88.0871 50.4473 88.0871C52.6694 88.0871 54.5722 87.1809 55.6837 85.628V88.0769C55.6837 88.0769 58.9096 88.0257 58.9096 85.8298V72.5646H55.6837V74.602Z" fill="#252525"/>
<path d="M36.836 80.9732C36.836 83.5781 35.4831 85.0261 33.0289 85.05C30.5393 85.05 29.3292 83.6371 29.3292 80.7304V72.5647H26.1035V81.3776C26.1035 82.6496 26.318 84.4637 27.3399 85.8827C28.384 87.333 30.0344 88.0745 32.2445 88.0871C32.2749 88.0875 32.3051 88.0876 32.335 88.0876C34.9783 88.0876 36.3395 86.8895 36.9979 85.9585V88.077C36.9979 88.077 40.0619 88.0247 40.0619 85.9375V72.5647H36.836V80.9732Z" fill="#252525"/>
<path d="M90.5744 78.695C88.8982 77.9704 87.6794 77.3438 87.7008 76.3717C87.7149 75.7284 88.5621 75.1126 89.4429 75.1431C90.3857 75.1754 91.0844 75.8257 91.4747 76.3459C91.4747 76.3459 93.2372 74.8393 93.4504 74.678C92.5375 73.1665 90.9866 72.3157 89.2474 72.2772C86.7668 72.2225 84.7047 74.1685 84.6509 76.6147C84.6041 78.7337 85.8453 79.6082 87.473 80.5314L90.1518 82.0376C90.77 82.4699 91.0617 82.7925 91.047 83.4575C91.024 84.4995 90.1525 85.1751 89.0238 85.2418C88.1935 85.2908 87.5118 84.8106 86.8657 84.1346C85.6083 82.8187 83.6785 83.4512 83.0879 83.6416C84.3157 86.4652 86.6388 88.1095 88.9595 88.1608C91.8821 88.2251 94.2201 86.068 94.2821 83.2497C94.3122 81.8933 93.7174 80.2083 90.5744 78.695Z" fill="#252525"/>
<path d="M49.2701 7.073C63.2797 7.073 70.3239 14.569 70.3239 14.569C70.3239 14.569 71.1294 20.1173 70.6152 31.2891C69.8387 48.1656 49.275 58.3008 49.2731 58.3019C49.2715 58.3028 28.7079 48.1656 27.9313 31.2891C27.4171 20.1173 28.2227 14.569 28.2227 14.569C28.2227 14.569 35.2604 7.073 49.2701 7.073Z" fill="#ED2F28"/>
<path d="M38.7591 29.2573C38.7591 23.2901 43.4765 18.4355 49.2749 18.4355C55.0782 18.4355 59.7994 23.1568 59.7994 28.9599C59.7994 33.5927 55.8168 37.4042 52.7476 39.3629C53.9381 40.0423 56.5662 40.7559 59.0823 40.9864C62.7565 38.143 64.9973 33.7475 64.9973 28.9599C64.9973 20.2906 57.9442 13.2377 49.2749 13.2377C40.6057 13.2377 33.5527 20.2906 33.5527 28.9599C33.5527 34.1958 35.7327 38.8471 39.8573 42.4114C43.7132 45.7436 49.3539 47.9677 55.7761 49.0207C57.1673 48.2519 59.5471 45.982 60.4393 44.6532C55.0758 43.9632 49.9995 42.6553 46.5966 40.8702C41.3962 38.1423 38.7591 34.235 38.7591 29.2573Z" fill="white"/>
</g>
<defs>
<clipPath id="clip0_1143_42783">
<rect width="100" height="100" fill="white"/>
</clipPath>
</defs>
</svg>
