<?xml version="1.0" encoding="UTF-8"?>
<svg id="Layer_2" data-name="Layer 2" xmlns="http://www.w3.org/2000/svg" xmlns:xlink="http://www.w3.org/1999/xlink" viewBox="0 0 1395 1080">
  <defs>
    <style>
      .cls-1, .cls-2, .cls-3, .cls-4, .cls-5, .cls-6 {
        fill: none;
      }

      .cls-7 {
        clip-path: url(#clippath);
      }

      .cls-2, .cls-3, .cls-4 {
        stroke-width: 1.48px;
      }

      .cls-2, .cls-3, .cls-4, .cls-5, .cls-6 {
        stroke-miterlimit: 10;
      }

      .cls-2, .cls-6 {
        stroke: #e24329;
      }

      .cls-3 {
        stroke: #fca326;
      }

      .cls-4 {
        stroke: #fc6d26;
      }

      .cls-5 {
        stroke: #d1d0d3;
      }

      .cls-5, .cls-6 {
        stroke-width: 2.96px;
      }
    </style>
    <clipPath id="clippath">
      <rect class="cls-1" width="1395" height="1080"/>
    </clipPath>
  </defs>
  <g id="Layer_1-2" data-name="Layer 1">
    <g class="cls-7">
      <g>
        <g>
          <g>
            <path class="cls-5" d="M1395,783.98l134.51,101.79c34.39,25.53,76.98,40.64,123.09,40.64,28.3,0,55.29-5.69,79.85-15.99,74.54-31.27,126.91-104.98,126.91-190.94s-52.33-159.63-126.83-190.92c-24.6-10.32-51.6-16.03-79.93-16.03-14.28,0-28.23,1.45-41.7,4.21-30.28,6.2-58.15,19.03-82.02,36.89-.38,.28-72.49,54.84-133.88,101.29m178.88-5.66l12.34-9.25c17.94-15,41.04-24.02,66.24-24.02,57.1,0,103.39,46.33,103.39,103.47s-46.29,103.46-103.39,103.46c-21.39,0-41.26-6.5-57.75-17.63l-114.28-85.76-.17-.13"/>
            <path class="cls-5" d="M1395,654.94c-61.39-46.45-133.49-101.01-133.88-101.29-23.87-17.87-51.74-30.69-82.02-36.89-13.47-2.76-27.42-4.21-41.7-4.21-28.34,0-55.34,5.71-79.93,16.03-74.49,31.28-126.83,104.98-126.83,190.92,0,85.96,52.37,159.67,126.91,190.94,24.56,10.3,51.55,15.99,79.85,15.99,46.11,0,88.7-15.1,123.09-40.64l134.51-101.79m-85.26-64.56l-.17,.13-114.28,85.76c-16.5,11.13-36.36,17.63-57.75,17.63-57.1,0-103.39-46.33-103.39-103.46,0-57.15,46.29-103.47,103.39-103.47,25.2,0,48.3,9.03,66.24,24.02l12.34,9.25"/>
          </g>
          <path class="cls-6" d="M1611.44,518.49l-.61-1.61-60.96-159.06c-1.22-3.12-3.41-5.74-6.26-7.55-2.84-1.82-6.18-2.68-9.56-2.5-3.36,.18-6.59,1.41-9.23,3.5-2.62,2.12-4.5,4.98-5.39,8.21l-41.16,125.98h-166.53l-41.16-125.98c-.89-3.23-2.78-6.09-5.39-8.21-2.63-2.1-5.86-3.32-9.23-3.5-3.38-.18-6.71,.68-9.56,2.5-2.85,1.81-5.04,4.44-6.26,7.55l-60.96,159.06-.61,1.6c-18.06,47.12-2.67,100.39,37.55,130.81,.08,.05,.14,.1,.22,.16l.54,.41,92.86,69.52,45.93,34.77,27.95,21.13,11.39,8.7,11.39-8.7,27.95-21.13,45.92-34.77,93.41-69.92c.09-.07,.16-.12,.25-.19,40.2-30.42,55.58-83.67,37.53-130.78Z"/>
          <polyline class="cls-6" points="1309.76 719.4 1355.66 684.77 1383.61 663.64 1395 654.94 1406.39 663.64 1434.34 684.77 1480.24 719.4"/>
        </g>
        <path class="cls-3" d="M1652.6,1762.09c-84.62,0-173.3-11.21-257.6-32.51-84.3,21.29-172.98,32.51-257.6,32.51-139.25,0-274.85-27.25-403.02-81.01C345.95,1518.13,94.97,1140.68,94.97,719.48c0-197.11,55.55-389.42,160.64-556.14C339.78,29.81,455.02-84.38,589.4-167.53c58.65-73.18,130.64-137.86,208.83-187.54,135.46-86.87,293.52-132.86,456.85-132.86,14.98,0,30.14,.4,45.06,1.19,31.59,1.68,63.4,5.17,94.75,10.37,31.34-5.19,63.13-8.67,94.68-10.35,14.89-.8,30.16-1.21,45.36-1.21,163.34,0,322.33,46.59,459.78,134.74,76.76,48.76,147.93,112.91,206.26,185.91,134.21,83.14,249.34,197.28,333.45,330.71,105.08,166.71,160.61,358.99,160.61,556.05,0,421.21-250.95,798.64-639.32,961.56-128.2,53.78-263.83,81.05-403.11,81.05Z"/>
        <path class="cls-4" d="M1652.6,1697.81c-84.97,0-173.64-11.96-257.6-34.67-83.96,22.71-172.62,34.67-257.6,34.67-130.67,0-257.9-25.57-378.16-76.01-364.48-152.91-599.99-507.09-599.99-902.32,0-184.96,52.12-365.42,150.74-521.86C391.07,68.99,502.48-40.14,632.72-118.66c55.53-71.35,124.44-134.15,199.99-182.15,125.24-80.31,271.37-122.84,422.37-122.84,13.86,0,27.88,.37,41.66,1.1,32.78,1.75,65.73,5.58,98.14,11.41,32.4-5.82,65.34-9.65,98.11-11.39,13.76-.74,27.88-1.11,41.94-1.11,151.01,0,298.01,43.08,425.08,124.57,74.21,47.14,142.37,109.46,197.59,180.63,130.11,78.53,241.41,187.61,322.44,316.16,98.6,156.44,150.71,336.86,150.71,521.77,0,395.24-235.48,749.41-599.91,902.28-120.29,50.46-247.55,76.05-378.24,76.05Z"/>
        <path class="cls-2" d="M1652.6,1633.52c-85.4,0-174.02-12.81-257.6-37.15-83.58,24.34-172.19,37.15-257.6,37.15-122.08,0-240.95-23.89-353.3-71-340.54-142.86-560.57-473.77-560.57-843.04,0-172.81,48.7-341.41,140.84-487.58C442.4,108.12,550.03,4.07,676.22-69.73c52.28-69.56,118.05-130.49,190.95-176.82,115.01-73.75,249.22-112.81,387.9-112.81,12.73,0,25.6,.34,38.27,1.01,33.99,1.81,68.07,6.05,101.53,12.62,33.44-6.56,67.53-10.8,101.54-12.61,12.64-.68,25.6-1.02,38.52-1.02,138.69,0,273.68,39.56,390.38,114.4,71.66,45.52,136.74,106.02,188.74,175.4,126.09,73.82,233.63,177.84,311.61,301.55,92.12,146.16,140.81,314.73,140.81,487.49,0,369.28-220.01,700.17-560.49,843-112.38,47.14-231.27,71.04-353.38,71.04Z"/>
        <path class="cls-4" d="M1652.6,1569.24c-85.9,0-174.49-13.8-257.6-40.04-83.11,26.23-171.69,40.04-257.6,40.04-113.5,0-224-22.21-328.45-66-316.59-132.81-521.15-440.45-521.15-783.76,0-160.66,45.28-317.41,130.94-453.3C493.76,147.19,597.69,48.26,719.97-20.73c48.88-67.82,111.43-126.92,181.68-171.56,104.78-67.19,227.07-102.78,353.43-102.78,11.59,0,23.33,.31,34.87,.92,35.24,1.88,70.45,6.6,104.92,14.06,34.44-7.45,69.68-12.17,104.97-14.05,11.52-.62,23.34-.93,35.09-.93,126.36,0,249.35,36.04,355.67,104.23,69.11,43.9,131.02,102.6,179.65,170.26,122.2,69.01,226.06,167.92,301.03,286.86,85.64,135.88,130.91,292.6,130.91,453.21,0,343.31-204.53,650.94-521.08,783.73-104.46,43.82-214.99,66.04-328.51,66.04Z"/>
        <path class="cls-3" d="M1652.6,1504.96c-86.51,0-175.05-14.97-257.6-43.44-82.54,28.47-171.09,43.44-257.6,43.44-104.91,0-207.06-20.52-303.59-61-292.64-122.77-481.72-407.14-481.72-724.48,0-148.51,41.85-293.41,121.03-419.02,72.04-114.28,172.37-208.05,290.9-272.09,45.29-66.16,104.49-123.45,172.1-166.41,94.55-60.63,204.92-92.76,318.95-92.76,10.47,0,21.06,.28,31.47,.83,36.52,1.95,72.86,7.26,108.31,15.81,35.41-8.54,71.79-13.85,108.39-15.8,10.39-.56,21.05-.84,31.67-.84,114.03,0,225.02,32.52,320.97,94.06,66.56,42.28,125.18,99.21,170.24,165.21,118.46,64.06,218.75,157.83,290.75,272.07,79.16,125.6,121.01,270.47,121.01,418.93,0,317.34-189.06,601.71-481.66,724.45-96.55,40.5-198.71,61.03-303.65,61.03Z"/>
        <path class="cls-4" d="M1652.6,1440.67c-87.26,0-175.75-16.38-257.6-47.53-81.85,31.15-170.34,47.53-257.6,47.53-96.33,0-190.11-18.84-278.73-56-268.69-112.72-442.3-373.82-442.3-665.2,0-136.36,38.43-269.41,111.13-384.74,69.13-109.66,166.01-198.23,281-257.14,41.43-64.58,97.13-120.11,162.09-161.38,84.32-54.07,182.77-82.73,284.48-82.73,9.34,0,18.79,.25,28.07,.74,37.85,2.02,75.33,8.06,111.71,17.98,36.32-9.91,73.84-15.95,111.82-17.97,9.25-.5,18.77-.75,28.25-.75,101.71,0,200.7,29.01,286.27,83.88,63.99,40.65,119.18,95.84,160.41,160.3,114.95,58.94,211.8,147.51,280.9,257.15,72.69,115.33,111.11,248.34,111.11,384.66,0,291.38-173.59,552.47-442.24,665.17-88.63,37.18-182.42,56.03-278.78,56.03Z"/>
        <path class="cls-2" d="M1652.6,1376.39c-88.19,0-176.62-18.1-257.6-52.54-80.98,34.44-169.4,52.54-257.6,52.54s-173.16-17.16-253.87-51c-244.74-102.67-402.87-340.51-402.87-605.91S626.3,235.86,853.58,127c37.21-63.14,89.22-116.96,151.49-156.52,74.1-47.52,160.63-72.71,250-72.71,8.2,0,16.5,.22,24.67,.65,39.26,2.09,77.87,9.07,115.12,20.77,37.14-11.69,75.8-18.66,115.23-20.76,8.14-.44,16.5-.66,24.83-.66,89.38,0,176.37,25.49,251.57,73.71,61.39,39,112.94,92.52,150,155.56,227.23,108.92,372.84,339.07,372.84,592.43s-158.12,503.24-402.83,605.89c-80.72,33.86-166.14,51.02-253.91,51.02Z"/>
        <path class="cls-4" d="M1652.6,1312.11c-89.39,0-177.72-20.25-257.6-58.82-79.87,38.57-168.21,58.82-257.6,58.82-79.17,0-156.22-15.48-229.01-46-220.79-92.63-363.45-307.19-363.45-546.63s138.84-448.25,354.54-542.82c32.48-61.9,80.49-114.08,140.06-151.92,63.87-40.96,138.48-62.68,215.53-62.68,7.07,0,14.23,.19,21.28,.56,40.77,2.17,80.52,10.4,118.54,24.51,37.82-14.09,77.6-22.32,118.62-24.5,7.02-.38,14.23-.57,21.41-.57,77.05,0,152.04,21.97,216.87,63.54,58.76,37.33,106.37,89.25,138.75,151.08,215.69,94.63,354.5,306.63,354.5,542.8s-142.65,454-363.41,546.61c-72.8,30.54-149.86,46.02-229.05,46.02Z"/>
        <path class="cls-3" d="M1652.6,1247.83c-90.94,0-179.17-23.05-257.6-66.99-78.42,43.94-166.66,66.99-257.6,66.99-70.6,0-139.28-13.79-204.15-41-196.84-82.58-324.03-273.87-324.03-487.35s127.1-404.67,323.8-487.26c4.5-1.89,9.05-3.72,13.62-5.49,26.98-60.9,70.76-111.76,127.37-147.73,53.64-34.4,116.33-52.66,181.06-52.66,5.94,0,11.96,.16,17.88,.47,42.22,2.25,83.78,12.46,122.01,29.83,38.29-17.54,79.16-27.55,121.97-29.83,5.9-.32,11.96-.48,17.99-.48,64.73,0,127.72,18.46,182.17,53.37,55.85,35.49,99.32,86.14,126.26,147.02,4.54,1.76,9.05,3.58,13.52,5.45,196.76,82.62,323.89,273.89,323.89,487.3s-127.17,404.77-323.99,487.34c-64.88,27.21-133.58,41.01-204.18,41.01Z"/>
        <path class="cls-4" d="M1652.6,1183.54c-92.65,0-181.23-26.92-257.6-78.07-76.37,51.15-164.95,78.07-257.6,78.07-62.01,0-122.34-12.11-179.29-35.99-172.89-72.53-284.61-240.56-284.61-428.07s111.64-355.45,284.41-427.99c12.31-5.17,24.88-9.81,37.61-13.9l5.12-13.35c21.24-54.35,58.53-99.64,107.85-130.98,43.41-27.84,94.18-42.63,146.58-42.63,4.79,0,9.67,.13,14.48,.38,44.79,2.39,87.55,15.45,125.49,38.13,38.06-22.72,80.72-35.75,125.32-38.12,4.78-.26,9.69-.39,14.56-.39,52.4,0,103.4,14.94,147.47,43.21,48.64,30.9,85.7,76.04,106.95,130.38l5.13,13.38c12.71,4.09,25.25,8.72,37.53,13.87,172.82,72.57,284.48,240.57,284.48,428.02s-111.7,355.53-284.58,428.06c-56.97,23.89-117.29,36.01-179.31,36.01Z"/>
        <path class="cls-2" d="M1652.6,1119.26c-86.44,0-168.76-27.2-238.05-78.65l-19.54-14.79-19.54,14.79c-69.3,51.45-151.61,78.65-238.05,78.65-53.43,0-105.39-10.43-154.43-30.99-148.95-62.48-245.18-207.24-245.18-368.79s96.17-306.23,245.01-368.72c19.88-8.34,40.36-15.05,61.21-20.06l16.51-43.07c16.23-41.54,44.74-76.16,82.45-100.12,33.19-21.28,72.03-32.61,112.11-32.61,3.67,0,7.4,.1,11.08,.29,43.7,2.33,84.86,17.94,119.08,45.16l.75,.6c3.08,2.49,6.08,5.05,9,7.69,2.76-2.49,5.6-4.92,8.51-7.27l1.03-.83c34.45-27.4,75.61-43.02,119.26-45.35,3.67-.2,7.43-.3,11.14-.3,40.08,0,79.07,11.42,112.78,33.04,37.18,23.63,65.54,58.14,81.77,99.67l16.52,43.08c20.83,5.01,41.29,11.71,61.14,20.04,148.88,62.51,245.07,207.25,245.07,368.75s-96.23,306.3-245.16,368.78c-49.05,20.57-101.01,31-154.45,31Z"/>
        <path class="cls-4" d="M1652.6,1054.98c-72.53,0-141.6-22.81-199.73-65.98l-57.87-43.79-57.87,43.79c-58.13,43.16-127.2,65.98-199.73,65.98-44.85,0-88.44-8.74-129.57-25.99-125-52.44-205.76-173.93-205.76-309.51s80.71-257,205.62-309.45c26.92-11.29,54.88-18.95,83.54-22.9l29.17-76.09c11.23-28.73,30.95-52.68,57.05-69.26,22.96-14.73,49.88-22.58,77.63-22.58,2.55,0,5.12,.07,7.68,.2,30.26,1.61,58.76,12.43,82.46,31.27l.61,.48c22.63,18.29,38.97,42.41,47.45,69.92l1.73,5.29,1.73-5.29c8.47-27.48,24.79-51.57,47.21-69.72l.85-.68c23.69-18.85,52.19-29.66,82.42-31.27,2.59-.14,5.16-.21,7.72-.21,27.75,0,54.75,7.91,78.08,22.87,25.72,16.34,45.37,40.24,56.61,68.97l29.17,76.1c28.65,3.95,56.59,11.6,83.49,22.89,124.94,52.46,205.66,173.93,205.66,309.47s-80.76,257.07-205.74,309.5c-41.13,17.25-84.73,26-129.58,26Z"/>
        <path class="cls-3" d="M1652.6,990.69c-58.62,0-114.44-18.43-161.41-53.31l-96.19-72.79-96.19,72.79c-46.97,34.87-102.78,53.31-161.41,53.31-36.27,0-71.5-7.06-104.71-20.99-101.05-42.39-166.34-140.61-166.34-250.23s65.25-207.78,166.22-250.18c33.05-13.87,68.05-20.94,104.06-21.04l43.63-113.83c6.22-15.92,17.17-29.2,31.65-38.41,12.73-8.16,27.73-12.55,43.16-12.55,1.43,0,2.86,.04,4.29,.11,16.81,.9,32.65,6.91,45.83,17.39l.38,.31c12.63,10.21,21.73,23.71,26.39,39.17l26.38,80.73h73.29l26.38-80.73c4.67-15.44,13.75-28.94,26.36-39.14l.42-.34c13.18-10.48,29.02-16.49,45.83-17.39,1.44-.08,2.87-.11,4.3-.11,15.43,0,30.43,4.39,43.38,12.7,14.26,9.06,25.21,22.34,31.43,38.26l43.63,113.83c36.01,.1,71,7.17,104.04,21.03,100.99,42.41,166.24,140.61,166.24,250.19s-65.29,207.83-166.33,250.22c-33.22,13.93-68.45,20.99-104.71,20.99Z"/>
      </g>
    </g>
  </g>
</svg>