<svg width="128" height="167" viewBox="0 0 128 167" fill="none" xmlns="http://www.w3.org/2000/svg">
<path d="M11.0298 123.318L64.817 150.667L116.562 123.318V16.3708H11.0298V123.318Z" fill="white"/>
<path d="M117.651 16.779L9.94043 125.223L65.7702 152.845L117.651 126.312V16.779Z" fill="#F2F3F2"/>
<path d="M7.48938 52.02V125.631L9.39576 126.584L63.183 153.933L64.817 154.749L66.4511 153.933L118.332 126.584L120.238 125.631V12.8331H7.48938V52.02ZM11.0298 123.59V16.3708H116.698V123.59L64.817 150.94L11.0298 123.59Z" fill="#DCDEDC"/>
<path d="M63.8638 18.1396C64.4085 18.1396 64.9532 18.1396 65.4979 18.2757L63.8638 21.4052C61.4128 21.2691 59.2341 23.1741 59.0979 25.6232C58.9617 28.0724 60.8681 30.2495 63.3192 30.3855H63.8638C64.9532 30.3855 66.0426 29.9773 66.8596 29.297L68.6298 32.2904C67.2681 33.2429 65.6341 33.7872 63.8638 33.7872C59.5064 33.9232 55.8298 30.6577 55.6936 26.3036C55.5575 21.9495 58.8255 18.2757 63.183 18.1396H63.8638ZM69.4468 24.8068L71.4894 28.2085L69.4468 31.4741L67.5404 28.2085H63.5915L65.6341 24.8068H69.4468ZM66.1787 23.5823C66.1787 23.038 66.3149 22.4937 66.5873 22.0855C66.8596 21.6773 67.4043 21.2691 67.8128 20.997L68.0851 20.8609C68.6298 20.5888 68.766 20.4527 68.766 20.1806C68.766 19.9085 68.3575 19.6363 68.0851 19.6363C67.5404 19.6363 67.1319 19.9085 66.8596 20.4527L66.1787 19.7724C66.3149 19.5003 66.5872 19.2282 66.8596 18.956C67.2681 18.6839 67.6766 18.6839 68.0851 18.6839C68.4936 18.6839 69.0383 18.82 69.3107 19.0921C69.583 19.3642 69.8553 19.7724 69.8553 20.1806C69.8553 20.8609 69.4468 21.4052 68.6298 21.6773L68.2213 21.9495C67.8128 22.2216 67.5404 22.3577 67.4043 22.7659H69.8553V23.7183L66.1787 23.5823ZM63.8638 40.5904L76.8 33.2429V12.8331H50.7915V33.1068L63.8638 40.5904Z" fill="#FF492C"/>
<path d="M122.826 88.7577H4.90212L0.544678 98.2823L4.90212 107.807H122.826L127.047 98.2823L122.826 88.7577Z" fill="#FFD200"/>
<path d="M44.9226 68.3478C44.9861 68.3478 45.0451 68.3705 45.0996 68.4158C45.145 68.4703 45.1677 68.5292 45.1677 68.5927V70.5929C45.1677 70.6564 45.145 70.7154 45.0996 70.7698C45.0451 70.8151 44.9861 70.8378 44.9226 70.8378H41.2596C41.1961 70.8378 41.1643 70.8741 41.1643 70.9467V82.3898C41.1643 82.4623 41.1416 82.5213 41.0962 82.5667C41.0417 82.612 40.9827 82.6347 40.9192 82.6347H38.5226C38.459 82.6347 38.4046 82.612 38.3592 82.5667C38.3047 82.5213 38.2775 82.4623 38.2775 82.3898V70.9467C38.2775 70.8741 38.2457 70.8378 38.1822 70.8378H34.6281C34.5646 70.8378 34.5056 70.8151 34.4511 70.7698C34.4057 70.7154 34.383 70.6564 34.383 70.5929V68.5927C34.383 68.5292 34.4057 68.4703 34.4511 68.4158C34.5056 68.3705 34.5646 68.3478 34.6281 68.3478H44.9226ZM49.743 82.798C48.5992 82.798 47.6187 82.4986 46.8017 81.8999C45.9847 81.3013 45.4264 80.4849 45.1268 79.4508C44.9362 78.8158 44.8409 78.1219 44.8409 77.369C44.8409 76.5707 44.9362 75.8496 45.1268 75.2055C45.4446 74.1986 46.0074 73.4095 46.8153 72.838C47.6414 72.2665 48.6219 71.9808 49.7566 71.9808C50.8823 71.9808 51.84 72.262 52.6298 72.8244C53.4196 73.3958 53.9734 74.185 54.2911 75.1919C54.518 75.8722 54.6315 76.5843 54.6315 77.3281C54.6315 78.0629 54.5317 78.7523 54.3319 79.3963C54.0414 80.4576 53.4877 81.2877 52.6707 81.8863C51.8627 82.4941 50.8868 82.798 49.743 82.798ZM49.743 80.3352C50.1969 80.3352 50.5782 80.1991 50.8868 79.927C51.2046 79.6549 51.4315 79.2784 51.5677 78.7977C51.6766 78.3622 51.7311 77.886 51.7311 77.369C51.7311 76.7975 51.6766 76.3167 51.5677 75.9267C51.4134 75.464 51.1819 75.1012 50.8732 74.8381C50.5555 74.5842 50.1742 74.4572 49.7294 74.4572C49.2664 74.4572 48.8806 74.5842 48.5719 74.8381C48.2633 75.1012 48.0409 75.464 47.9047 75.9267C47.7958 76.2442 47.7413 76.7249 47.7413 77.369C47.7413 77.9858 47.7912 78.462 47.8911 78.7977C48.0182 79.2784 48.2451 79.6549 48.5719 79.927C48.8897 80.1991 49.28 80.3352 49.743 80.3352ZM65.9336 82.798C64.8897 82.798 63.9683 82.5939 63.1694 82.1857C62.3796 81.7775 61.7623 81.2015 61.3175 80.4577C60.8726 79.7138 60.6502 78.8611 60.6502 77.8996V68.5927C60.6502 68.5292 60.6729 68.4703 60.7183 68.4158C60.7728 68.3705 60.8318 68.3478 60.8953 68.3478H63.2783C63.3509 68.3478 63.41 68.3705 63.4553 68.4158C63.5098 68.4703 63.537 68.5292 63.537 68.5927V77.9268C63.537 78.6434 63.7549 79.224 64.1907 79.6685C64.6355 80.113 65.2165 80.3352 65.9336 80.3352C66.6599 80.3352 67.2454 80.113 67.6902 79.6685C68.1351 79.224 68.3575 78.6434 68.3575 77.9268V68.5927C68.3575 68.5292 68.3802 68.4703 68.4256 68.4158C68.4709 68.3705 68.53 68.3478 68.6026 68.3478H70.9856C71.0582 68.3478 71.1172 68.3705 71.1626 68.4158C71.208 68.4703 71.2307 68.5292 71.2307 68.5927V77.8996C71.2307 78.8611 71.0083 79.7138 70.5634 80.4577C70.1277 81.2015 69.5104 81.7775 68.7115 82.1857C67.9126 82.5939 66.9867 82.798 65.9336 82.798ZM77.6034 82.7708C76.6956 82.7708 75.9013 82.6438 75.2205 82.3898C74.5396 82.1358 74.0085 81.7775 73.6273 81.3149C73.2551 80.8522 73.069 80.3261 73.069 79.7365V79.5324C73.069 79.4689 73.0917 79.4099 73.137 79.3555C73.1824 79.3102 73.2414 79.2875 73.3141 79.2875H75.5881C75.6517 79.2875 75.7061 79.3102 75.7515 79.3555C75.806 79.4099 75.8332 79.4689 75.8332 79.5324V79.546C75.8332 79.8544 75.9966 80.1129 76.3234 80.3216C76.6593 80.5302 77.0769 80.6345 77.5762 80.6345C78.0483 80.6345 78.425 80.5438 78.7064 80.3624C78.9878 80.1719 79.1285 79.9451 79.1285 79.6821C79.1285 79.4372 79.0105 79.2512 78.7745 79.1242C78.5203 79.0063 78.1163 78.8793 77.5626 78.7432C76.9271 78.5799 76.4233 78.4212 76.0511 78.267C75.1796 77.9677 74.4851 77.6003 73.9677 77.1649C73.4502 76.7295 73.1915 76.1035 73.1915 75.2872C73.1915 74.2803 73.5819 73.482 74.3626 72.8924C75.1433 72.3028 76.1827 72.008 77.4809 72.008C78.3524 72.008 79.1149 72.144 79.7685 72.4162C80.4222 72.6974 80.9305 73.092 81.2936 73.5999C81.6568 74.0989 81.8383 74.6703 81.8383 75.3144C81.8383 75.3779 81.8111 75.4323 81.7566 75.4777C81.7112 75.523 81.6568 75.5457 81.5932 75.5457H79.4009C79.3373 75.5457 79.2783 75.523 79.2239 75.4777C79.1785 75.4323 79.1558 75.3779 79.1558 75.3144C79.1558 75.015 79.0014 74.761 78.6928 74.5524C78.3932 74.3438 77.9892 74.2395 77.4809 74.2395C77.027 74.2395 76.6593 74.3256 76.3779 74.498C76.0965 74.6613 75.9558 74.8835 75.9558 75.1647C75.9558 75.4368 76.0919 75.6409 76.3643 75.777C76.6457 75.9131 77.1132 76.0582 77.7668 76.2124L78.2843 76.3349C78.4749 76.3802 78.6746 76.4392 78.8834 76.5117C79.8548 76.802 80.6173 77.1694 81.1711 77.6139C81.7339 78.0674 82.0153 78.7205 82.0153 79.5732C82.0153 80.5801 81.6159 81.3648 80.817 81.9272C80.0182 82.4896 78.947 82.7708 77.6034 82.7708ZM92.9634 76.3076C93.0451 76.8247 93.0724 77.4007 93.0451 78.0357C93.027 78.208 92.9362 78.2942 92.7728 78.2942H86.4681C86.3864 78.2942 86.3592 78.326 86.3864 78.3895C86.4318 78.6616 86.5044 78.9337 86.6043 79.2058C86.9583 79.9678 87.6846 80.3488 88.783 80.3488C89.6545 80.3397 90.3399 79.986 90.8392 79.2875C90.8936 79.2058 90.9572 79.165 91.0298 79.165C91.0661 79.165 91.1115 79.1922 91.166 79.2467L92.6366 80.689C92.7002 80.7615 92.7319 80.825 92.7319 80.8795C92.7319 80.9067 92.7092 80.9611 92.6639 81.0427C92.21 81.6051 91.629 82.036 90.9209 82.3354C90.2128 82.6438 89.4366 82.798 88.5924 82.798C87.4213 82.798 86.4318 82.5349 85.6239 82.0088C84.8159 81.4736 84.2349 80.7298 83.8809 79.7773C83.5904 79.097 83.4451 78.208 83.4451 77.1104C83.4451 76.3575 83.5495 75.6954 83.7583 75.1239C84.067 74.1623 84.6117 73.3958 85.3924 72.8244C86.1731 72.2529 87.1036 71.9672 88.1839 71.9672C89.5456 71.9672 90.6395 72.3617 91.4656 73.1509C92.2917 73.9401 92.7909 74.9923 92.9634 76.3076ZM88.2111 74.4572C87.3487 74.4572 86.7813 74.8563 86.509 75.6545C86.4545 75.836 86.4046 76.0537 86.3592 76.3076C86.3592 76.3711 86.3955 76.4029 86.4681 76.4029H90.0085C90.0902 76.4029 90.1175 76.3711 90.0902 76.3076C90.0176 75.9176 89.9813 75.7271 89.9813 75.7362C89.8633 75.328 89.65 75.0105 89.3413 74.7837C89.0326 74.566 88.6559 74.4572 88.2111 74.4572ZM40.6741 50.1558C40.6741 50.2284 40.6468 50.2874 40.5924 50.3327C40.547 50.3781 40.4925 50.4008 40.429 50.4008H33.7158C33.6522 50.4008 33.6205 50.437 33.6205 50.5096V53.6663C33.6205 53.7389 33.6522 53.7752 33.7158 53.7752H38.1141C38.1776 53.7752 38.2366 53.7979 38.2911 53.8432C38.3365 53.8977 38.3592 53.9566 38.3592 54.0201V55.9931C38.3592 56.0656 38.3365 56.1246 38.2911 56.1699C38.2366 56.2244 38.1776 56.2516 38.1141 56.2516H33.7158C33.6522 56.2516 33.6205 56.2833 33.6205 56.3468V59.6532C33.6205 59.7258 33.6522 59.7621 33.7158 59.7621H40.429C40.4925 59.7621 40.547 59.7848 40.5924 59.8301C40.6468 59.8755 40.6741 59.9299 40.6741 59.9934V61.9799C40.6741 62.0525 40.6468 62.1115 40.5924 62.1568C40.547 62.2022 40.4925 62.2249 40.429 62.2249H30.9787C30.9152 62.2249 30.8607 62.2022 30.8153 62.1568C30.7609 62.1115 30.7336 62.0525 30.7336 61.9799V48.1829C30.7336 48.1194 30.7609 48.0604 30.8153 48.006C30.8607 47.9607 30.9152 47.938 30.9787 47.938H40.429C40.4925 47.938 40.547 47.9607 40.5924 48.006C40.6468 48.0604 40.6741 48.1194 40.6741 48.1829V50.1558ZM46.6792 51.5709C47.5597 51.5709 48.3495 51.7251 49.0485 52.0336C49.7385 52.342 50.2786 52.7592 50.669 53.2854C51.0502 53.8205 51.2409 54.4147 51.2409 55.0678V61.9799C51.2409 62.0525 51.2182 62.1115 51.1728 62.1568C51.1274 62.2022 51.0684 62.2249 50.9958 62.2249H48.6128C48.5402 62.2249 48.4812 62.2022 48.4358 62.1568C48.3904 62.1115 48.3677 62.0525 48.3677 61.9799V61.3132C48.3677 61.2679 48.3541 61.2407 48.3268 61.2316C48.2996 61.2134 48.2724 61.227 48.2451 61.2724C47.6732 62.0162 46.7518 62.3881 45.4809 62.3881C44.4188 62.3881 43.5654 62.1296 42.9209 61.6126C42.2582 61.0955 41.9268 60.3336 41.9268 59.3267C41.9268 58.2835 42.299 57.4716 43.0434 56.8911C43.7697 56.3106 44.8136 56.0203 46.1753 56.0203H48.2724C48.3359 56.0203 48.3677 55.9885 48.3677 55.925V55.476C48.3677 55.0225 48.2315 54.6687 47.9592 54.4147C47.6868 54.1698 47.2783 54.0473 46.7336 54.0473C46.3161 54.0473 45.9665 54.1199 45.6851 54.265C45.4037 54.4192 45.2222 54.6324 45.1405 54.9045C45.1041 55.0497 45.0134 55.1177 44.8681 55.1086L42.4034 54.7821C42.24 54.7549 42.1629 54.6914 42.1719 54.5916C42.2355 54.0201 42.467 53.5031 42.8664 53.0404C43.2658 52.5778 43.7969 52.2195 44.4596 51.9655C45.1132 51.7025 45.8531 51.5709 46.6792 51.5709ZM46.257 60.2519C46.8471 60.2519 47.3464 60.0932 47.7549 59.7757C48.1634 59.4582 48.3677 59.0545 48.3677 58.5647V57.8299C48.3677 57.7664 48.3359 57.7347 48.2724 57.7347H46.8017C46.1844 57.7347 45.7033 57.8526 45.3583 58.0885C45.0134 58.3152 44.8409 58.6418 44.8409 59.0681C44.8409 59.431 44.968 59.7167 45.2222 59.9254C45.4763 60.1431 45.8213 60.2519 46.257 60.2519ZM57.4639 62.3609C56.547 62.3609 55.7481 62.2339 55.0673 61.9799C54.3864 61.726 53.8599 61.3676 53.4877 60.905C53.1064 60.4424 52.9158 59.9163 52.9158 59.3267V59.1226C52.9158 59.0591 52.943 59.0001 52.9975 58.9457C53.0429 58.9003 53.0973 58.8777 53.1609 58.8777H55.4349C55.5075 58.8777 55.5666 58.9003 55.6119 58.9457C55.6573 59.0001 55.68 59.0591 55.68 59.1226V59.1362C55.68 59.4446 55.848 59.7031 56.1839 59.9117C56.5107 60.1204 56.9283 60.2247 57.4366 60.2247C57.8996 60.2247 58.2718 60.134 58.5532 59.9526C58.8437 59.7621 58.989 59.5353 58.989 59.2722C58.989 59.0273 58.8664 58.8414 58.6213 58.7144C58.3762 58.5964 57.9722 58.4695 57.4094 58.3334C56.7739 58.1701 56.2701 58.0114 55.8979 57.8572C55.0264 57.5578 54.3319 57.1904 53.8145 56.755C53.297 56.3196 53.0383 55.6937 53.0383 54.8773C53.0383 53.8704 53.4332 53.0722 54.223 52.4826C55.0037 51.893 56.0431 51.5981 57.3413 51.5981C58.2128 51.5981 58.9753 51.7342 59.629 52.0063C60.2735 52.2875 60.7773 52.6821 61.1405 53.1901C61.5036 53.689 61.6851 54.2605 61.6851 54.9045C61.6851 54.968 61.6624 55.0225 61.617 55.0678C61.5717 55.1132 61.5126 55.1358 61.44 55.1358H59.2613C59.1887 55.1358 59.1297 55.1132 59.0843 55.0678C59.0389 55.0225 59.0162 54.968 59.0162 54.9045C59.0162 54.6052 58.8619 54.3512 58.5532 54.1426C58.2446 53.9339 57.8406 53.8296 57.3413 53.8296C56.8874 53.8296 56.5152 53.9158 56.2247 54.0881C55.9433 54.2514 55.8026 54.4737 55.8026 54.7549C55.8026 55.027 55.9433 55.2311 56.2247 55.3672C56.497 55.5032 56.9646 55.6484 57.6273 55.8026C57.7725 55.8389 57.9404 55.8797 58.1311 55.925C58.3217 55.9704 58.526 56.0293 58.7439 56.1019C59.7152 56.3922 60.4778 56.7596 61.0315 57.204C61.5853 57.6576 61.8622 58.3107 61.8622 59.1634C61.8622 60.1703 61.4673 60.9549 60.6775 61.5173C59.8786 62.0797 58.8074 62.3609 57.4639 62.3609ZM65.0758 50.5504C64.6128 50.5504 64.227 50.3962 63.9183 50.0878C63.6187 49.7885 63.469 49.4075 63.469 48.9449C63.469 48.4641 63.6187 48.074 63.9183 47.7747C64.2179 47.4754 64.6037 47.3257 65.0758 47.3257C65.5569 47.3257 65.9427 47.4754 66.2332 47.7747C66.5419 48.074 66.6962 48.4641 66.6962 48.9449C66.6962 49.4075 66.5419 49.7885 66.2332 50.0878C65.9246 50.3962 65.5387 50.5504 65.0758 50.5504ZM63.8502 62.2249C63.7867 62.2249 63.7277 62.2022 63.6732 62.1568C63.6278 62.1115 63.6051 62.0525 63.6051 61.9799V51.9655C63.6051 51.893 63.6278 51.834 63.6732 51.7886C63.7277 51.7433 63.7867 51.7206 63.8502 51.7206H66.2332C66.3058 51.7206 66.3648 51.7433 66.4102 51.7886C66.4556 51.834 66.4783 51.893 66.4783 51.9655V61.9799C66.4783 62.0525 66.4556 62.1115 66.4102 62.1568C66.3648 62.2022 66.3058 62.2249 66.2332 62.2249H63.8502ZM78.0256 55.8978C78.1073 56.4149 78.1345 56.9909 78.1073 57.6258C78.0982 57.7982 78.0119 57.8844 77.8485 57.8844H71.5302C71.4485 57.8844 71.4213 57.9161 71.4485 57.9796C71.4939 58.2518 71.5711 58.5239 71.68 58.796C72.0341 59.558 72.7512 59.939 73.8315 59.939C74.703 59.9299 75.3929 59.5761 75.9013 58.8777C75.9558 58.796 76.0193 58.7552 76.0919 58.7552C76.1283 58.7552 76.1736 58.7824 76.2281 58.8368L77.6987 60.2791C77.7714 60.3517 77.8077 60.4152 77.8077 60.4696C77.8077 60.4968 77.7759 60.5513 77.7124 60.6329C77.2675 61.1953 76.6911 61.6262 75.983 61.9255C75.2749 62.2339 74.4987 62.3881 73.6545 62.3881C72.4834 62.3881 71.4939 62.1251 70.686 61.599C69.878 61.0638 69.2925 60.3199 68.9294 59.3675C68.648 58.6872 68.5073 57.7982 68.5073 56.7006C68.5073 55.9477 68.6117 55.2855 68.8205 54.714C69.1291 53.7525 69.6738 52.986 70.4545 52.4145C71.2443 51.8431 72.1748 51.5573 73.246 51.5573C74.6077 51.5573 75.7016 51.9519 76.5277 52.7411C77.3538 53.5303 77.8531 54.5825 78.0256 55.8978ZM73.2596 54.0473C72.4063 54.0473 71.8434 54.4464 71.5711 55.2447C71.5166 55.4261 71.4712 55.6438 71.4349 55.8978C71.4349 55.9613 71.4667 55.9931 71.5302 55.9931H75.0707C75.1433 55.9931 75.166 55.9613 75.1387 55.8978C75.0752 55.5078 75.0434 55.3173 75.0434 55.3263C74.9163 54.9181 74.703 54.6007 74.4034 54.3739C74.0948 54.1562 73.7135 54.0473 73.2596 54.0473ZM83.9353 62.3609C83.0185 62.3609 82.2196 62.2339 81.5387 61.9799C80.8579 61.726 80.3314 61.3676 79.9592 60.905C79.587 60.4424 79.4009 59.9163 79.4009 59.3267V59.1226C79.4009 59.0591 79.4236 59.0001 79.469 58.9457C79.5144 58.9003 79.5734 58.8777 79.646 58.8777H81.9064C81.979 58.8777 82.038 58.9003 82.0834 58.9457C82.1288 59.0001 82.1515 59.0591 82.1515 59.1226V59.1362C82.1515 59.4446 82.3195 59.7031 82.6553 59.9117C82.9912 60.1204 83.4088 60.2247 83.9081 60.2247C84.3711 60.2247 84.7478 60.134 85.0383 59.9526C85.3197 59.7621 85.4604 59.5353 85.4604 59.2722C85.4604 59.0273 85.3379 58.8414 85.0928 58.7144C84.8477 58.5964 84.4483 58.4695 83.8945 58.3334C83.25 58.1701 82.7461 58.0114 82.383 57.8572C81.5115 57.5578 80.817 57.1904 80.2996 56.755C79.7822 56.3196 79.5234 55.6937 79.5234 54.8773C79.5234 53.8704 79.9138 53.0722 80.6945 52.4826C81.4752 51.893 82.5146 51.5981 83.8128 51.5981C84.6843 51.5981 85.4468 51.7342 86.1004 52.0063C86.7541 52.2875 87.2579 52.6821 87.6119 53.1901C87.9751 53.689 88.1566 54.2605 88.1566 54.9045C88.1566 54.968 88.1339 55.0225 88.0885 55.0678C88.0431 55.1132 87.9841 55.1358 87.9115 55.1358H85.7328C85.6602 55.1358 85.6012 55.1132 85.5558 55.0678C85.5104 55.0225 85.4877 54.968 85.4877 54.9045C85.4877 54.6052 85.3334 54.3512 85.0247 54.1426C84.7161 53.9339 84.3121 53.8296 83.8128 53.8296C83.3589 53.8296 82.9912 53.9158 82.7098 54.0881C82.4193 54.2514 82.2741 54.4737 82.2741 54.7549C82.2741 55.027 82.4148 55.2311 82.6962 55.3672C82.9776 55.5032 83.4451 55.6484 84.0987 55.8026C84.244 55.8389 84.4119 55.8797 84.6026 55.925C84.7932 55.9704 84.9975 56.0293 85.2153 56.1019C86.1867 56.3922 86.9492 56.7596 87.503 57.204C88.0658 57.6576 88.3473 58.3107 88.3473 59.1634C88.3473 60.1703 87.9478 60.9549 87.149 61.5173C86.3501 62.0797 85.2789 62.3609 83.9353 62.3609ZM96 53.8024C96 53.8659 95.9773 53.9203 95.9319 53.9657C95.8865 54.0201 95.8275 54.0473 95.7549 54.0473H93.7941C93.7305 54.0473 93.6987 54.0791 93.6987 54.1426V58.4695C93.6987 58.9139 93.7895 59.2496 93.9711 59.4763C94.1527 59.694 94.4477 59.8029 94.8562 59.8029H95.5371C95.6006 59.8029 95.6551 59.8256 95.7004 59.8709C95.7549 59.9163 95.7821 59.9752 95.7821 60.0478V61.9799C95.7821 62.1342 95.7005 62.2203 95.5371 62.2385C94.9651 62.2657 94.5566 62.2793 94.3115 62.2793C93.1768 62.2793 92.3325 62.0933 91.7787 61.7214C91.2159 61.3495 90.9299 60.6465 90.9209 59.6124V54.1426C90.9209 54.0791 90.8846 54.0473 90.8119 54.0473H89.6545C89.5819 54.0473 89.5229 54.0201 89.4775 53.9657C89.4321 53.9203 89.4094 53.8659 89.4094 53.8024V51.9791C89.4094 51.9156 89.4321 51.8567 89.4775 51.8022C89.5229 51.7569 89.5819 51.7342 89.6545 51.7342H90.8119C90.8846 51.7342 90.9209 51.6979 90.9209 51.6254V49.2034C90.9209 49.1399 90.9436 49.0809 90.989 49.0265C91.0343 48.9811 91.0934 48.9585 91.166 48.9585H93.4536C93.5172 48.9585 93.5717 48.9811 93.617 49.0265C93.6715 49.0809 93.6987 49.1399 93.6987 49.2034V51.6254C93.6987 51.6979 93.7305 51.7342 93.7941 51.7342H95.7549C95.8275 51.7342 95.8865 51.7569 95.9319 51.8022C95.9773 51.8567 96 51.9156 96 51.9791V53.8024Z" fill="#252530"/>
<path d="M39.1354 95.2616C39.1354 95.3069 39.1218 95.3432 39.0945 95.3704C39.0582 95.4067 39.0174 95.4249 38.972 95.4249H34.3286C34.2832 95.4249 34.2605 95.4475 34.2605 95.4929V98.0373C34.2605 98.0827 34.2832 98.1054 34.3286 98.1054H37.4469C37.4923 98.1054 37.5331 98.119 37.5694 98.1462C37.5967 98.1825 37.6103 98.2233 37.6103 98.2686V99.3027C37.6103 99.3481 37.5967 99.3889 37.5694 99.4252C37.5331 99.4524 37.4923 99.466 37.4469 99.466H34.3286C34.2832 99.466 34.2605 99.4887 34.2605 99.534V102.16C34.2605 102.205 34.2832 102.228 34.3286 102.228H38.972C39.0174 102.228 39.0582 102.246 39.0945 102.283C39.1218 102.31 39.1354 102.346 39.1354 102.391V103.426C39.1354 103.471 39.1218 103.507 39.0945 103.534C39.0582 103.571 39.0174 103.589 38.972 103.589H32.8443C32.7989 103.589 32.7626 103.571 32.7354 103.534C32.6991 103.507 32.6809 103.471 32.6809 103.426V94.2275C32.6809 94.1821 32.6991 94.1458 32.7354 94.1186C32.7626 94.0823 32.7989 94.0642 32.8443 94.0642H38.972C39.0174 94.0642 39.0582 94.0823 39.0945 94.1186C39.1218 94.1458 39.1354 94.1821 39.1354 94.2275V95.2616ZM43.9286 96.527C44.6639 96.527 45.254 96.7447 45.6988 97.1801C46.1345 97.6155 46.3524 98.2097 46.3524 98.9626V103.426C46.3524 103.471 46.3342 103.507 46.2979 103.534C46.2707 103.571 46.2344 103.589 46.189 103.589H44.9362C44.8908 103.589 44.85 103.571 44.8137 103.534C44.7864 103.507 44.7728 103.471 44.7728 103.426V99.2891C44.7728 98.8719 44.6548 98.5317 44.4188 98.2686C44.1828 98.0146 43.8696 97.8876 43.4792 97.8876C43.0889 97.8876 42.7711 98.0146 42.526 98.2686C42.29 98.5226 42.172 98.8583 42.172 99.2755V103.426C42.172 103.471 42.1584 103.507 42.1311 103.534C42.0948 103.571 42.054 103.589 42.0086 103.589H40.7558C40.7104 103.589 40.6741 103.571 40.6469 103.534C40.6106 103.507 40.5924 103.471 40.5924 103.426V96.7991C40.5924 96.7538 40.6106 96.7129 40.6469 96.6767C40.6741 96.6495 40.7104 96.6358 40.7558 96.6358H42.0086C42.054 96.6358 42.0948 96.6495 42.1311 96.6767C42.1584 96.7129 42.172 96.7538 42.172 96.7991V97.2345C42.172 97.2618 42.181 97.2799 42.1992 97.289C42.2174 97.298 42.231 97.289 42.2401 97.2617C42.6123 96.7719 43.1751 96.527 43.9286 96.527ZM51.6903 97.7516C51.6903 97.7969 51.6721 97.8332 51.6358 97.8604C51.6086 97.8967 51.5723 97.9149 51.5269 97.9149H50.1379C50.0925 97.9149 50.0698 97.9375 50.0698 97.9829V101.262C50.0698 101.607 50.1425 101.856 50.2877 102.01C50.442 102.165 50.6826 102.242 51.0094 102.242H51.4179C51.4633 102.242 51.4996 102.255 51.5269 102.283C51.5632 102.319 51.5813 102.36 51.5813 102.405V103.426C51.5813 103.525 51.5269 103.584 51.4179 103.602L50.7098 103.616C49.9927 103.616 49.4571 103.494 49.103 103.249C48.749 103.004 48.5674 102.541 48.5584 101.861V97.9829C48.5584 97.9375 48.5357 97.9149 48.4903 97.9149H47.7141C47.6687 97.9149 47.6279 97.8967 47.5915 97.8604C47.5643 97.8332 47.5507 97.7969 47.5507 97.7516V96.7991C47.5507 96.7538 47.5643 96.7129 47.5915 96.6767C47.6279 96.6495 47.6687 96.6358 47.7141 96.6358H48.4903C48.5357 96.6358 48.5584 96.6132 48.5584 96.5678V94.9758C48.5584 94.9305 48.572 94.8897 48.5992 94.8534C48.6355 94.8262 48.6764 94.8126 48.7218 94.8126H49.9064C49.9518 94.8126 49.9881 94.8262 50.0154 94.8534C50.0517 94.8897 50.0698 94.9305 50.0698 94.9758V96.5678C50.0698 96.6132 50.0925 96.6358 50.1379 96.6358H51.5269C51.5723 96.6358 51.6086 96.6495 51.6358 96.6767C51.6721 96.7129 51.6903 96.7538 51.6903 96.7991V97.7516ZM58.8256 99.3299C58.8619 99.5567 58.8801 99.8107 58.8801 100.092L58.8664 100.514C58.8664 100.623 58.812 100.677 58.703 100.677H54.4409C54.3955 100.677 54.3728 100.7 54.3728 100.745C54.4001 101.044 54.4409 101.248 54.4954 101.357C54.7132 102.01 55.2443 102.342 56.0886 102.351C56.7059 102.351 57.1961 102.097 57.5592 101.589C57.5955 101.534 57.6409 101.507 57.6954 101.507C57.7317 101.507 57.7635 101.521 57.7907 101.548L58.635 102.242C58.7167 102.305 58.7303 102.378 58.6758 102.459C58.3944 102.859 58.0222 103.167 57.5592 103.385C57.0871 103.602 56.5652 103.711 55.9932 103.711C55.2852 103.711 54.6815 103.553 54.1822 103.235C53.692 102.918 53.3334 102.473 53.1064 101.902C52.8976 101.412 52.7932 100.731 52.7932 99.8606C52.7932 99.3345 52.8477 98.9081 52.9567 98.5816C53.1382 97.9466 53.4832 97.4432 53.9915 97.0713C54.4908 96.7084 55.0945 96.527 55.8026 96.527C57.591 96.527 58.5986 97.4613 58.8256 99.3299ZM55.8026 97.8876C55.4667 97.8876 55.1853 97.9738 54.9584 98.1462C54.7405 98.3095 54.5862 98.5408 54.4954 98.8401C54.4409 98.9943 54.4046 99.1939 54.3864 99.4388C54.3683 99.4841 54.3864 99.5068 54.4409 99.5068H57.2052C57.2506 99.5068 57.2732 99.4841 57.2732 99.4388C57.2551 99.212 57.2279 99.0397 57.1915 98.9217C57.1098 98.5952 56.951 98.3412 56.715 98.1598C56.4698 97.9784 56.1657 97.8876 55.8026 97.8876ZM63.5643 96.5542C63.8548 96.5542 64.109 96.6132 64.3269 96.7311C64.3995 96.7674 64.4267 96.8354 64.4086 96.9352L64.1771 98.1598C64.168 98.2686 64.1045 98.3004 63.9864 98.255C63.8503 98.2097 63.6914 98.187 63.5098 98.187C63.3918 98.187 63.301 98.1915 63.2375 98.2006C62.8562 98.2187 62.5385 98.3503 62.2843 98.5952C62.0301 98.8492 61.903 99.1757 61.903 99.5749V103.426C61.903 103.471 61.8894 103.507 61.8622 103.534C61.8259 103.571 61.785 103.589 61.7396 103.589H60.4869C60.4415 103.589 60.4052 103.571 60.3779 103.534C60.3416 103.507 60.3235 103.471 60.3235 103.426V96.7991C60.3235 96.7538 60.3416 96.7129 60.3779 96.6767C60.4052 96.6495 60.4415 96.6358 60.4869 96.6358H61.7396C61.785 96.6358 61.8259 96.6495 61.8622 96.6767C61.8894 96.7129 61.903 96.7538 61.903 96.7991V97.4114C61.903 97.4477 61.9076 97.4658 61.9167 97.4658C61.9348 97.4749 61.953 97.4658 61.9711 97.4386C62.3524 96.849 62.8835 96.5542 63.5643 96.5542ZM71.3396 98.4319C71.503 98.8945 71.5847 99.4615 71.5847 100.133C71.5847 100.777 71.5076 101.33 71.3532 101.793C71.1535 102.391 70.8358 102.859 70.4001 103.194C69.9552 103.53 69.3969 103.698 68.7252 103.698C68.0806 103.698 67.5632 103.466 67.1728 103.004C67.1547 102.986 67.1365 102.981 67.1184 102.99C67.1002 102.999 67.0911 103.017 67.0911 103.045V105.997C67.0911 106.043 67.0775 106.079 67.0503 106.106C67.014 106.142 66.9731 106.16 66.9277 106.16H65.6749C65.6296 106.16 65.5932 106.142 65.566 106.106C65.5297 106.079 65.5115 106.043 65.5115 105.997V96.7991C65.5115 96.7538 65.5297 96.7129 65.566 96.6767C65.5932 96.6495 65.6296 96.6358 65.6749 96.6358H66.9277C66.9731 96.6358 67.014 96.6495 67.0503 96.6767C67.0775 96.7129 67.0911 96.7538 67.0911 96.7991V97.2073C67.0911 97.2345 67.1002 97.2527 67.1184 97.2617C67.1365 97.2708 67.1547 97.2618 67.1728 97.2345C67.5723 96.7628 68.0942 96.527 68.7388 96.527C69.3833 96.527 69.928 96.6948 70.3728 97.0304C70.8176 97.3661 71.1399 97.8332 71.3396 98.4319ZM69.5694 101.766C69.8418 101.348 69.9779 100.795 69.9779 100.106C69.9779 99.4433 69.869 98.9217 69.6511 98.5408C69.3969 98.0963 69.0111 97.874 68.4937 97.874C68.0216 97.874 67.6676 98.0917 67.4315 98.5272C67.2228 98.8809 67.1184 99.407 67.1184 100.106C67.1184 100.822 67.2318 101.366 67.4588 101.738C67.6948 102.137 68.0352 102.337 68.4801 102.337C68.9612 102.337 69.3243 102.146 69.5694 101.766ZM76.3507 96.5542C76.6412 96.5542 76.8954 96.6132 77.1132 96.7311C77.1859 96.7674 77.2131 96.8354 77.1949 96.9352L76.9635 98.1598C76.9544 98.2686 76.8908 98.3004 76.7728 98.255C76.6367 98.2097 76.4778 98.187 76.2962 98.187C76.1782 98.187 76.0874 98.1915 76.0239 98.2006C75.6426 98.2187 75.3249 98.3503 75.0707 98.5952C74.8165 98.8492 74.6894 99.1757 74.6894 99.5749V103.426C74.6894 103.471 74.6758 103.507 74.6486 103.534C74.6123 103.571 74.5714 103.589 74.526 103.589H73.2732C73.2279 103.589 73.1915 103.571 73.1643 103.534C73.128 103.507 73.1098 103.471 73.1098 103.426V96.7991C73.1098 96.7538 73.128 96.7129 73.1643 96.6767C73.1915 96.6495 73.2279 96.6358 73.2732 96.6358H74.526C74.5714 96.6358 74.6123 96.6495 74.6486 96.6767C74.6758 96.7129 74.6894 96.7538 74.6894 96.7991V97.4114C74.6894 97.4477 74.694 97.4658 74.703 97.4658C74.7212 97.4749 74.7393 97.4658 74.7575 97.4386C75.1388 96.849 75.6698 96.5542 76.3507 96.5542ZM79.1286 95.6834C78.8471 95.6834 78.6157 95.5927 78.4341 95.4113C78.2525 95.2298 78.1618 94.9985 78.1618 94.7173C78.1618 94.4361 78.2525 94.2048 78.4341 94.0234C78.6157 93.842 78.8471 93.7513 79.1286 93.7513C79.41 93.7513 79.6415 93.842 79.823 94.0234C80.0046 94.2048 80.0954 94.4361 80.0954 94.7173C80.0954 94.9985 80.0046 95.2298 79.823 95.4113C79.6415 95.5927 79.41 95.6834 79.1286 95.6834ZM78.475 103.589C78.4296 103.589 78.3932 103.571 78.366 103.534C78.3297 103.507 78.3115 103.471 78.3115 103.426V96.7855C78.3115 96.7402 78.3297 96.7039 78.366 96.6767C78.3932 96.6404 78.4296 96.6222 78.475 96.6222H79.7277C79.7731 96.6222 79.814 96.6404 79.8503 96.6767C79.8775 96.7039 79.8911 96.7402 79.8911 96.7855V103.426C79.8911 103.471 79.8775 103.507 79.8503 103.534C79.814 103.571 79.7731 103.589 79.7277 103.589H78.475ZM84.2894 103.67C83.7175 103.67 83.2137 103.584 82.7779 103.412C82.3513 103.249 82.0199 103.017 81.7839 102.718C81.5479 102.428 81.4298 102.101 81.4298 101.738V101.616C81.4298 101.57 81.4435 101.53 81.4707 101.493C81.507 101.466 81.5479 101.453 81.5932 101.453H82.7915C82.8369 101.453 82.8778 101.466 82.9141 101.493C82.9413 101.53 82.9549 101.57 82.9549 101.616V101.643C82.9549 101.87 83.0775 102.069 83.3226 102.242C83.5768 102.405 83.8945 102.487 84.2758 102.487C84.6389 102.487 84.934 102.414 85.1609 102.269C85.3879 102.115 85.5013 101.924 85.5013 101.697C85.5013 101.489 85.406 101.33 85.2154 101.221C85.0338 101.121 84.7342 101.013 84.3166 100.895L83.7992 100.731C83.3362 100.595 82.9459 100.45 82.6281 100.296C82.3104 100.142 82.0426 99.9286 81.8247 99.6565C81.6069 99.3934 81.4979 99.0533 81.4979 98.636C81.4979 98.001 81.7476 97.4976 82.2469 97.1257C82.7462 96.7447 83.4043 96.5542 84.2213 96.5542C84.7751 96.5542 85.2608 96.6404 85.6784 96.8127C86.0959 96.9941 86.4182 97.2391 86.6452 97.5475C86.8721 97.865 86.9856 98.2233 86.9856 98.6224C86.9856 98.6678 86.972 98.7086 86.9447 98.7449C86.9084 98.7721 86.8676 98.7857 86.8222 98.7857H85.6647C85.6193 98.7857 85.5785 98.7721 85.5422 98.7449C85.5149 98.7086 85.5013 98.6678 85.5013 98.6224C85.5013 98.3866 85.3879 98.1915 85.1609 98.0373C84.9249 97.874 84.6071 97.7924 84.2077 97.7924C83.8537 97.7924 83.5677 97.8559 83.3498 97.9829C83.1229 98.119 83.0094 98.3049 83.0094 98.5408C83.0094 98.7585 83.1138 98.9217 83.3226 99.0306C83.5405 99.1485 83.8991 99.2755 84.3984 99.4116L84.6979 99.4932C85.1791 99.6384 85.583 99.7835 85.9098 99.9286C86.2367 100.083 86.5135 100.291 86.7405 100.555C86.9674 100.827 87.0809 101.176 87.0809 101.602C87.0809 102.246 86.8267 102.75 86.3184 103.113C85.81 103.484 85.1337 103.67 84.2894 103.67ZM94.2843 99.3299C94.3206 99.5567 94.3388 99.8107 94.3388 100.092L94.3252 100.514C94.3252 100.623 94.2707 100.677 94.1618 100.677H89.8996C89.8542 100.677 89.8315 100.7 89.8315 100.745C89.8588 101.044 89.8996 101.248 89.9541 101.357C90.172 102.01 90.703 102.342 91.5473 102.351C92.1646 102.351 92.6548 102.097 93.0179 101.589C93.0542 101.534 93.0996 101.507 93.1541 101.507C93.1904 101.507 93.2222 101.521 93.2494 101.548L94.0937 102.242C94.1754 102.305 94.189 102.378 94.1345 102.459C93.8531 102.859 93.4764 103.167 93.0043 103.385C92.5413 103.602 92.0239 103.711 91.452 103.711C90.7439 103.711 90.1402 103.553 89.6409 103.235C89.1507 102.918 88.7921 102.473 88.5652 101.902C88.3564 101.412 88.252 100.731 88.252 99.8606C88.252 99.3345 88.3064 98.9081 88.4154 98.5816C88.5969 97.9466 88.9374 97.4432 89.4367 97.0713C89.945 96.7084 90.5532 96.527 91.2613 96.527C93.0497 96.527 94.0574 97.4613 94.2843 99.3299ZM91.2613 97.8876C90.9254 97.8876 90.644 97.9738 90.4171 98.1462C90.1992 98.3095 90.0449 98.5408 89.9541 98.8401C89.8996 98.9943 89.8633 99.1939 89.8452 99.4388C89.827 99.4841 89.8452 99.5068 89.8996 99.5068H92.6639C92.7093 99.5068 92.732 99.4841 92.732 99.4388C92.7138 99.212 92.6866 99.0397 92.6503 98.9217C92.5686 98.5952 92.4052 98.3412 92.1601 98.1598C91.924 97.9784 91.6244 97.8876 91.2613 97.8876Z" fill="#242530"/>
<path d="M45.1404 122.883C44.4141 122.883 43.7787 122.765 43.234 122.529C42.6893 122.302 42.2717 121.971 41.9812 121.536C41.6816 121.109 41.5319 120.611 41.5319 120.039V119.74C41.5319 119.694 41.55 119.658 41.5863 119.631C41.6136 119.595 41.6499 119.577 41.6953 119.577H43.2476C43.293 119.577 43.3338 119.595 43.3702 119.631C43.3974 119.658 43.411 119.694 43.411 119.74V119.944C43.411 120.307 43.579 120.611 43.9148 120.856C44.2507 121.109 44.7046 121.237 45.2765 121.237C45.7577 121.237 46.1163 121.137 46.3523 120.937C46.5883 120.729 46.7063 120.475 46.7063 120.175C46.7063 119.957 46.6337 119.776 46.4885 119.631C46.3432 119.477 46.1435 119.345 45.8893 119.236C45.6442 119.118 45.2493 118.96 44.7046 118.76C44.0964 118.551 43.579 118.338 43.1523 118.121C42.7347 117.903 42.3852 117.604 42.1038 117.223C41.8133 116.851 41.668 116.388 41.668 115.835C41.668 115.29 41.8087 114.814 42.0902 114.406C42.3716 113.998 42.7619 113.685 43.2612 113.467C43.7605 113.249 44.337 113.141 44.9906 113.141C45.6805 113.141 46.2933 113.263 46.8289 113.508C47.3736 113.753 47.8002 114.098 48.1089 114.542C48.4085 114.977 48.5582 115.485 48.5582 116.066V116.27C48.5582 116.315 48.5446 116.352 48.5174 116.379C48.4811 116.415 48.4402 116.433 48.3948 116.433H46.8289C46.7835 116.433 46.7472 116.415 46.7199 116.379C46.6836 116.352 46.6655 116.315 46.6655 116.27V116.161C46.6655 115.78 46.5112 115.454 46.2025 115.182C45.8848 114.919 45.4536 114.787 44.9089 114.787C44.4822 114.787 44.1463 114.878 43.9012 115.059C43.6652 115.241 43.5472 115.49 43.5472 115.807C43.5472 116.034 43.6198 116.225 43.7651 116.379C43.9012 116.533 44.11 116.669 44.3914 116.787C44.6638 116.914 45.0904 117.082 45.6714 117.291C46.316 117.526 46.8198 117.735 47.1829 117.916C47.5551 118.098 47.891 118.366 48.1906 118.719C48.4811 119.082 48.6263 119.549 48.6263 120.121C48.6263 120.973 48.3131 121.645 47.6868 122.135C47.0604 122.633 46.2116 122.883 45.1404 122.883ZM53.9097 113.236C54.5089 113.236 55.0354 113.358 55.4893 113.603C55.9432 113.848 56.2972 114.193 56.5514 114.637C56.7965 115.091 56.9191 115.608 56.9191 116.188C56.9191 116.76 56.792 117.263 56.5378 117.699C56.2746 118.134 55.9069 118.474 55.4348 118.719C54.9719 118.955 54.4363 119.073 53.828 119.073H51.8944C51.849 119.073 51.8263 119.096 51.8263 119.141V122.611C51.8263 122.656 51.8082 122.692 51.7719 122.72C51.7446 122.756 51.7083 122.774 51.6629 122.774H50.0697C50.0243 122.774 49.9835 122.756 49.9472 122.72C49.9199 122.692 49.9063 122.656 49.9063 122.611V113.399C49.9063 113.354 49.9199 113.313 49.9472 113.277C49.9835 113.249 50.0243 113.236 50.0697 113.236H53.9097ZM53.6238 117.536C54.0414 117.536 54.3772 117.413 54.6314 117.168C54.8856 116.932 55.0127 116.619 55.0127 116.229C55.0127 115.83 54.8856 115.508 54.6314 115.263C54.3772 115.018 54.0414 114.896 53.6238 114.896H51.8944C51.849 114.896 51.8263 114.919 51.8263 114.964V117.467C51.8263 117.513 51.849 117.536 51.8944 117.536H53.6238ZM63.3327 122.774C63.2419 122.774 63.1784 122.733 63.1421 122.652L61.4399 118.883C61.4218 118.846 61.3946 118.828 61.3582 118.828H60.0919C60.0465 118.828 60.0238 118.851 60.0238 118.896V122.611C60.0238 122.656 60.0056 122.692 59.9693 122.72C59.9421 122.756 59.9058 122.774 59.8604 122.774H58.2672C58.2218 122.774 58.1809 122.756 58.1446 122.72C58.1174 122.692 58.1038 122.656 58.1038 122.611V113.413C58.1038 113.367 58.1174 113.331 58.1446 113.304C58.1809 113.268 58.2218 113.249 58.2672 113.249H62.1617C62.7426 113.249 63.251 113.367 63.6868 113.603C64.1316 113.839 64.472 114.175 64.708 114.61C64.9531 115.046 65.0757 115.549 65.0757 116.12C65.0757 116.737 64.9214 117.263 64.6127 117.699C64.3041 118.143 63.8729 118.456 63.3191 118.638C63.2737 118.656 63.2601 118.688 63.2782 118.733L65.1302 122.584C65.1483 122.62 65.1574 122.647 65.1574 122.665C65.1574 122.738 65.1075 122.774 65.0076 122.774H63.3327ZM60.0919 114.896C60.0465 114.896 60.0238 114.919 60.0238 114.964V117.291C60.0238 117.336 60.0465 117.359 60.0919 117.359H61.8757C62.257 117.359 62.5656 117.245 62.8016 117.018C63.0468 116.792 63.1693 116.497 63.1693 116.134C63.1693 115.771 63.0468 115.472 62.8016 115.236C62.5656 115.009 62.257 114.896 61.8757 114.896H60.0919ZM66.628 122.774C66.5826 122.774 66.5463 122.756 66.5191 122.72C66.4828 122.692 66.4646 122.656 66.4646 122.611V113.413C66.4646 113.367 66.4828 113.331 66.5191 113.304C66.5463 113.268 66.5826 113.249 66.628 113.249H68.2212C68.2666 113.249 68.3075 113.268 68.3438 113.304C68.371 113.331 68.3846 113.367 68.3846 113.413V122.611C68.3846 122.656 68.371 122.692 68.3438 122.72C68.3075 122.756 68.2666 122.774 68.2212 122.774H66.628ZM75.5199 113.413C75.5199 113.367 75.5381 113.331 75.5744 113.304C75.6016 113.268 75.638 113.249 75.6834 113.249H77.2765C77.3219 113.249 77.3628 113.268 77.3991 113.304C77.4263 113.331 77.4399 113.367 77.4399 113.413V122.611C77.4399 122.656 77.4263 122.692 77.3991 122.72C77.3628 122.756 77.3219 122.774 77.2765 122.774H75.7378C75.647 122.774 75.5835 122.738 75.5472 122.665L72.0204 116.842C72.0022 116.814 71.9841 116.805 71.9659 116.814C71.9477 116.814 71.9387 116.833 71.9387 116.869L71.9659 122.611C71.9659 122.656 71.9523 122.692 71.9251 122.72C71.8887 122.756 71.8479 122.774 71.8025 122.774H70.2093C70.1639 122.774 70.1276 122.756 70.1004 122.72C70.0641 122.692 70.0459 122.656 70.0459 122.611V113.413C70.0459 113.367 70.0641 113.331 70.1004 113.304C70.1276 113.268 70.1639 113.249 70.2093 113.249H71.748C71.8388 113.249 71.9024 113.286 71.9387 113.358L75.4519 119.155C75.47 119.182 75.4882 119.191 75.5063 119.182C75.5245 119.182 75.5336 119.164 75.5336 119.127L75.5199 113.413ZM82.451 122.883C81.752 122.883 81.1347 122.742 80.5991 122.461C80.0635 122.18 79.6504 121.79 79.3599 121.291C79.0604 120.783 78.9106 120.198 78.9106 119.536V116.488C78.9106 115.826 79.0604 115.241 79.3599 114.733C79.6504 114.225 80.0635 113.83 80.5991 113.549C81.1347 113.277 81.752 113.141 82.451 113.141C83.1409 113.141 83.7537 113.277 84.2893 113.549C84.8158 113.821 85.2289 114.193 85.5285 114.665C85.819 115.127 85.9642 115.644 85.9642 116.216V116.311C85.9642 116.356 85.9506 116.393 85.9234 116.42C85.887 116.456 85.8462 116.474 85.8008 116.474H84.2076C84.1622 116.474 84.1259 116.456 84.0987 116.42C84.0624 116.393 84.0442 116.356 84.0442 116.311V116.27C84.0442 115.853 83.899 115.504 83.6085 115.222C83.318 114.932 82.9321 114.787 82.451 114.787C81.9608 114.787 81.5704 114.937 81.2799 115.236C80.9804 115.544 80.8306 115.944 80.8306 116.433V119.59C80.8306 120.08 80.9894 120.475 81.3072 120.774C81.6249 121.082 82.0289 121.237 82.5191 121.237C82.9912 121.237 83.3679 121.109 83.6493 120.856C83.9307 120.611 84.0714 120.266 84.0714 119.821V119.209C84.0714 119.164 84.0487 119.141 84.0034 119.141H82.4782C82.4329 119.141 82.3965 119.123 82.3693 119.087C82.333 119.059 82.3148 119.023 82.3148 118.978V117.726C82.3148 117.681 82.333 117.644 82.3693 117.617C82.3965 117.581 82.4329 117.563 82.4782 117.563H85.8008C85.8462 117.563 85.887 117.581 85.9234 117.617C85.9506 117.644 85.9642 117.681 85.9642 117.726V119.522C85.9642 120.211 85.819 120.81 85.5285 121.318C85.238 121.826 84.8295 122.216 84.3029 122.488C83.7673 122.751 83.15 122.883 82.451 122.883ZM51.8263 133.836C51.8082 133.854 51.8036 133.872 51.8127 133.891C51.8218 133.909 51.8399 133.918 51.8672 133.918H55.5574C55.6028 133.918 55.6436 133.931 55.6799 133.959C55.7072 133.995 55.7208 134.036 55.7208 134.081V135.401C55.7208 135.446 55.7072 135.483 55.6799 135.51C55.6436 135.546 55.6028 135.564 55.5574 135.564H49.4297C49.3843 135.564 49.3435 135.546 49.3072 135.51C49.2799 135.483 49.2663 135.446 49.2663 135.401V134.149C49.2663 134.067 49.2936 133.999 49.348 133.945C49.7929 133.51 50.2468 133.038 50.7097 132.53C51.1727 132.013 51.4632 131.691 51.5812 131.564C51.8354 131.265 52.0941 130.979 52.3574 130.707C53.1835 129.79 53.5965 129.11 53.5965 128.666C53.5965 128.348 53.4831 128.085 53.2561 127.876C53.0292 127.677 52.7341 127.577 52.371 127.577C52.0079 127.577 51.7129 127.677 51.4859 127.876C51.259 128.085 51.1455 128.357 51.1455 128.693V129.033C51.1455 129.078 51.1273 129.119 51.091 129.156C51.0638 129.183 51.0275 129.196 50.9821 129.196H49.3753C49.3299 129.196 49.2936 129.183 49.2663 129.156C49.23 129.119 49.2119 129.078 49.2119 129.033V128.394C49.2391 127.904 49.3934 127.468 49.6748 127.087C49.9563 126.715 50.3285 126.43 50.7914 126.23C51.2635 126.031 51.79 125.931 52.371 125.931C53.0155 125.931 53.5784 126.049 54.0595 126.285C54.5316 126.529 54.8992 126.856 55.1625 127.264C55.4167 127.672 55.5438 128.126 55.5438 128.625C55.5438 129.006 55.4485 129.396 55.2578 129.795C55.0672 130.194 54.7812 130.625 54.3999 131.088C54.1185 131.441 53.8144 131.791 53.4876 132.135C53.1608 132.48 52.6751 132.979 52.0306 133.632L51.8263 133.836ZM60.1463 135.714C59.1477 135.714 58.358 135.433 57.777 134.87C57.196 134.317 56.9055 133.56 56.9055 132.598V129.006C56.9055 128.062 57.196 127.314 57.777 126.761C58.358 126.207 59.1477 125.931 60.1463 125.931C61.1449 125.931 61.9392 126.207 62.5293 126.761C63.1103 127.314 63.4008 128.062 63.4008 129.006V132.598C63.4008 133.56 63.1103 134.317 62.5293 134.87C61.9392 135.433 61.1449 135.714 60.1463 135.714ZM60.1463 134.067C60.5548 134.067 60.8816 133.94 61.1268 133.686C61.3628 133.442 61.4808 133.11 61.4808 132.693V128.951C61.4808 128.534 61.3628 128.203 61.1268 127.958C60.8816 127.704 60.5548 127.577 60.1463 127.577C59.7469 127.577 59.4292 127.704 59.1931 127.958C58.948 128.203 58.8255 128.534 58.8255 128.951V132.693C58.8255 133.11 58.948 133.442 59.1931 133.686C59.4292 133.94 59.7469 134.067 60.1463 134.067ZM67.2136 133.836C67.1954 133.854 67.1909 133.872 67.1999 133.891C67.209 133.909 67.2272 133.918 67.2544 133.918H70.9446C70.99 133.918 71.0309 133.931 71.0672 133.959C71.0944 133.995 71.108 134.036 71.108 134.081V135.401C71.108 135.446 71.0944 135.483 71.0672 135.51C71.0309 135.546 70.99 135.564 70.9446 135.564H64.817C64.7716 135.564 64.7353 135.546 64.708 135.51C64.6717 135.483 64.6536 135.446 64.6536 135.401V134.149C64.6536 134.067 64.6808 133.999 64.7353 133.945C65.1801 133.51 65.634 133.038 66.097 132.53C66.5599 132.013 66.8504 131.691 66.9685 131.564C67.2226 131.265 67.4814 130.979 67.7446 130.707C68.5707 129.79 68.9838 129.11 68.9838 128.666C68.9838 128.348 68.8703 128.085 68.6434 127.876C68.4164 127.677 68.1214 127.577 67.7582 127.577C67.3951 127.577 67.1001 127.677 66.8731 127.876C66.6462 128.085 66.5327 128.357 66.5327 128.693V129.033C66.5327 129.078 66.5191 129.119 66.4919 129.156C66.4556 129.183 66.4147 129.196 66.3693 129.196H64.7625C64.7171 129.196 64.6808 129.183 64.6536 129.156C64.6173 129.119 64.5991 129.078 64.5991 129.033V128.394C64.6263 127.904 64.7807 127.468 65.0621 127.087C65.3435 126.715 65.7202 126.43 66.1923 126.23C66.6553 126.031 67.1772 125.931 67.7582 125.931C68.4028 125.931 68.9656 126.049 69.4468 126.285C69.9188 126.529 70.2865 126.856 70.5497 127.264C70.8039 127.672 70.931 128.126 70.931 128.625C70.931 129.006 70.8357 129.396 70.6451 129.795C70.4544 130.194 70.1685 130.625 69.7872 131.088C69.5058 131.441 69.2017 131.791 68.8748 132.135C68.548 132.48 68.0624 132.979 67.4178 133.632L67.2136 133.836ZM77.971 131.02C78.1526 131.437 78.2434 131.918 78.2434 132.462C78.2434 132.952 78.1616 133.405 77.9982 133.823C77.7804 134.403 77.4173 134.857 76.9089 135.183C76.3914 135.51 75.7832 135.673 75.0842 135.673C74.3943 135.673 73.7906 135.501 73.2731 135.156C72.7466 134.811 72.3699 134.344 72.1429 133.755C72.0158 133.401 71.9432 133.02 71.9251 132.612C71.9251 132.503 71.9795 132.448 72.0885 132.448H73.6953C73.8042 132.448 73.8587 132.503 73.8587 132.612C73.895 132.911 73.9449 133.133 74.0085 133.278C74.0902 133.514 74.2263 133.696 74.417 133.823C74.5985 133.959 74.8164 134.027 75.0706 134.027C75.579 134.027 75.9285 133.804 76.1191 133.36C76.2462 133.088 76.3097 132.77 76.3097 132.407C76.3097 131.981 76.2416 131.632 76.1055 131.36C75.8967 130.933 75.5472 130.72 75.057 130.72C74.9571 130.72 74.8527 130.747 74.7438 130.802C74.6348 130.865 74.5032 130.952 74.3489 131.06C74.3126 131.088 74.2763 131.101 74.2399 131.101C74.1855 131.101 74.1446 131.074 74.1174 131.02L73.314 129.89C73.2958 129.863 73.2868 129.831 73.2868 129.795C73.2868 129.741 73.3049 129.695 73.3412 129.659L75.5063 127.768C75.5245 127.75 75.5336 127.731 75.5336 127.713C75.5245 127.695 75.5063 127.686 75.4791 127.686H72.2791C72.2337 127.686 72.1974 127.668 72.1702 127.632C72.1338 127.604 72.1157 127.568 72.1157 127.523V126.203C72.1157 126.158 72.1338 126.121 72.1702 126.094C72.1974 126.058 72.2337 126.04 72.2791 126.04H77.9574C78.0028 126.04 78.0436 126.058 78.0799 126.094C78.1072 126.121 78.1208 126.158 78.1208 126.203V127.7C78.1208 127.772 78.089 127.84 78.0255 127.904L76.2417 129.537C76.2235 129.555 76.219 129.573 76.228 129.591C76.228 129.609 76.2462 129.618 76.2825 129.618C77.0723 129.772 77.6351 130.24 77.971 131.02Z" fill="#252530"/>
</svg>
